Language                     files          blank        comment           code
-------------------------------------------------------------------------------
C                               98          38498          68909         151824
Python                         423          37286          72428         115437
C/C++ Header                   114           2320           3554          12464
Cython                          12           2089           6031           3134
C++                             10             67            165            867
YAML                             8             66            118            503
Markdown                        14            118              0            345
JavaScript                       1             48            107            338
make                             6             73             66            310
Fortran 90                      18             73             37            293
Bourne Shell                     5             44             53            202
Fortran 77                      14              4             44            200
HTML                             5             10              0            145
sed                              1              0             12            140
JSON                             1             17              0             68
INI                              2              9              0             63
TOML                             1             12              4             48
D                                1              0              0              1
-------------------------------------------------------------------------------
SUM:                           734          80734         151528         286382
-------------------------------------------------------------------------------