Language                     files          blank        comment           code
-------------------------------------------------------------------------------
Python                         494          16716          29153          44455
Cython                          49           2424           4448           7955
C                                3            277            336           2285
C/C++ Header                     4             91            663           1743
XML                              1              0            163           1342
C++                              1            192            132            978
CSS                              3             56             30            328
YAML                             5             59             81            260
HTML                             7             14             11            202
Bourne Shell                     7             38             50            180
DOS Batch                        1             21              1            142
Markdown                         5             45              0            141
make                             2             29              4            130
INI                             10              4              0             30
JSON                             1              4              0             24
JavaScript                       2              2              5             20
-------------------------------------------------------------------------------
SUM:                           595          19972          35077          60215
-------------------------------------------------------------------------------